<svg width="28" height="27" viewBox="0 0 28 27" fill="none" xmlns="http://www.w3.org/2000/svg">
<path d="M13.7206 0C6.2692 0 0.226562 6.04263 0.226562 13.4941C0.226562 20.9455 6.2692 26.9881 13.7206 26.9881C21.172 26.9881 27.2147 20.9455 27.2147 13.4941C27.2147 6.04263 21.172 0 13.7206 0ZM22.1523 13.5079C22.1523 13.5079 22.1523 16.2445 21.8052 17.5641C21.6106 18.2865 21.0411 18.856 20.3188 19.0504C18.9991 19.3977 13.7206 19.3977 13.7206 19.3977C13.7206 19.3977 8.45589 19.3977 7.12246 19.0366C6.40015 18.8422 5.83062 18.2724 5.63605 17.5501C5.28869 16.2445 5.28869 13.4941 5.28869 13.4941C5.28869 13.4941 5.28869 10.7576 5.63605 9.43798C5.83042 8.71567 6.41395 8.13214 7.12246 7.93777C8.44209 7.59041 13.7206 7.59041 13.7206 7.59041C13.7206 7.59041 18.9991 7.59041 20.3188 7.95156C21.0411 8.14593 21.6106 8.71567 21.8052 9.43798C22.1663 10.7576 22.1523 13.5079 22.1523 13.5079Z" fill="#D0A543"/>
<path d="M12 16.0562L16.3894 13.5281L12 11V16.0562Z" fill="#D0A543"/>
</svg>
