<svg width="32" height="32" viewBox="0 0 32 32" fill="none" xmlns="http://www.w3.org/2000/svg">
<g clip-path="url(#clip0_326_3929)">
<path d="M13.7841 21.1652C12.9441 25.5702 11.9179 29.7939 8.87787 32.0002C7.93974 25.3414 10.256 20.3408 11.331 15.032C9.49724 11.9445 11.5516 5.73203 15.4197 7.26328C20.1791 9.14578 11.2985 18.7402 17.2604 19.9383C23.4854 21.1889 26.026 9.13766 22.1666 5.21891C16.5891 -0.440467 5.93162 5.08953 7.24224 13.192C7.56099 15.1727 9.60787 15.7739 8.06037 18.507C4.49037 17.7158 3.42537 14.9008 3.56224 11.1477C3.78287 5.00391 9.08224 0.702658 14.3979 0.107658C21.1197 -0.644842 27.4285 2.57516 28.2997 8.89891C29.281 16.0358 25.2654 23.7652 18.0779 23.2095C16.1291 23.0583 15.3116 22.0927 13.7841 21.1652Z" fill="#464646"/>
</g>
<defs>
<clipPath id="clip0_326_3929">
<rect width="32" height="32" fill="white"/>
</clipPath>
</defs>
</svg>
